<?xml version="1.0" encoding="UTF-8" standalone="no"?>
<svg
   xmlns:dc="http://purl.org/dc/elements/1.1/"
   xmlns:cc="http://creativecommons.org/ns#"
   xmlns:rdf="http://www.w3.org/1999/02/22-rdf-syntax-ns#"
   xmlns:svg="http://www.w3.org/2000/svg"
   xmlns="http://www.w3.org/2000/svg"
   xmlns:sodipodi="http://sodipodi.sourceforge.net/DTD/sodipodi-0.dtd"
   xmlns:inkscape="http://www.inkscape.org/namespaces/inkscape"
   data-name="Layer 1"
   viewBox="0 0 32 32"
   x="0px"
   y="0px"
   id="svg2"
   version="1.1"
   inkscape:version="0.91 r13725"
   sodipodi:docname="noun_1401856_cc.svg"
   width="32"
   height="32">
  <metadata
     id="metadata20">
    <rdf:RDF>
      <cc:Work
         rdf:about="">
        <dc:format>image/svg+xml</dc:format>
        <dc:type
           rdf:resource="http://purl.org/dc/dcmitype/StillImage" />
        <dc:title>13</dc:title>
      </cc:Work>
    </rdf:RDF>
  </metadata>
  <defs
     id="defs18" />
  <sodipodi:namedview
     pagecolor="#ffffff"
     bordercolor="#666666"
     borderopacity="1"
     objecttolerance="10"
     gridtolerance="10"
     guidetolerance="10"
     inkscape:pageopacity="0"
     inkscape:pageshadow="2"
     inkscape:window-width="1547"
     inkscape:window-height="876"
     id="namedview16"
     showgrid="false"
     inkscape:zoom="10.680141"
     inkscape:cx="29.161405"
     inkscape:cy="8.3336964"
     inkscape:window-x="53"
     inkscape:window-y="24"
     inkscape:window-maximized="1"
     inkscape:current-layer="svg2" />
  <title
     id="title4">13</title>
  <g
     data-name="Group"
     id="g6"
     transform="matrix(0,0.351821,-0.351821,0,33.59105,-1.5910501)"
     style="fill:#ffffff">
    <polygon
       data-name="Path"
       points="47.3,33.6 45.9,32.2 27.7,50.5 45.9,68.8 47.3,67.4 31.5,51.5 92.7,51.5 92.7,49.5 92.7,49.5 31.5,49.5 "
       id="polygon8"
       style="fill:#ffffff" />
    <polygon
       data-name="Path"
       points="68.7,66.5 68.7,66.5 66.7,66.5 66.7,86.8 9.3,86.8 9.3,13.2 66.7,13.2 66.7,34.5 68.7,34.5 68.7,11.2 7.3,11.2 7.3,88.8 68.7,88.8 "
       id="polygon10"
       style="fill:#ffffff" />
  </g>
</svg>
